{
  "twitchBot": {
      "connection": {
          "reconnect": true
      },
      "identity": {
          "username": "twitch-username",
          "password": "oauth:your-oauth-key"
      },
      "channels": ["#twitch-username"]
  }   
}
